{
    "Version": "2008-10-17",
    "Statement": [
        {
            "Sid": "Stmt1335892150622",
            "Effect": "Allow",
            "Principal": {
                "Service": "billingreports.amazonaws.com"
            },
            "Action": [
                "s3:GetBucketAcl",
                "s3:GetBucketPolicy"
            ],
            "Resource": "arn:aws:s3:::<client_name>-lk-cur"
        },
        {
            "Sid": "Stmt1335892526596",
            "Effect": "Allow",
            "Principal": {
                "Service": "billingreports.amazonaws.com"
            },
            "Action": "s3:PutObject",
            "Resource": "arn:aws:s3:::<client_name>-lk-cur/*"
        }
    ]
}