{
    "timeSeries": [
      {
        "metric": {
          "labels": {
            "instance_name": "gcp-metadata-collection"
          },
          "type": "compute.googleapis.com/instance/cpu/utilization"
        },
        "resource": {
          "type": "gce_instance",
          "labels": {
            "project_id": "prefab-breaker-238408",
            "zone": "us-central1-c",
            "instance_id": "1207434499657871094"
          }
        },
        "metricKind": "GAUGE",
        "valueType": "DOUBLE",
        "points": [
          {
            "interval": {
              "startTime": "2024-12-30T06:50:00Z",
              "endTime": "2024-12-30T06:50:00Z"
            },
            "value": {
              "doubleValue": 0.0009683882659146547
            }
          }
        ]
      }
    ],
    "unit": "10^2.%"
  }